[
  {
    "model": "allbackend.user",
    "pk": 1,
    "fields": {
      "password": "pbkdf2_sha256$180000$Qv4wKn6Lbfjc$WGb39Rd4Q9FUQtAkgvVjLsY5qoY7ZUu6+8oiV/Cc8a0=",
      "is_superuser": true,
      "username": "kala",
      "is_staff": true,
      "is_active": true,
      "date_joined": "2019-10-31T16:28:13.347Z",
      "uuid": "9bca447e-bf0c-4358-9eda-1877b11d6739",
      "first_name": "Johannes",
      "last_name": "Martikkala",
      "email": "martikkalajohannes@gmail.com",
      "groups": [],
      "user_permissions": []
    }
  }
]
